{
	"$schema": "https://raw.githubusercontent.com/martinring/tmlanguage/master/tmlanguage.json",
	"name": "CCL",
	"patterns": [
		{"include": "#constants"},
		{"include": "#statements"}
  ],
	"repository": {
		"constants": {
			"patterns": [
        {"include": "#keywords_selection"},
        {"include": "#keywords_reportwriter"},
        {"include": "#keywords_system"},
        {"include": "#keywords_logic"},
        {"include": "#keywords_variable_init"}, 
        {"include": "#keywords_specifier"}, 
        {"include": "#keywords_methods"}, 
        {"include": "#keywords_variable_type"},
        {"include": "#keywords_uar"}, 
        {"include": "#keywords_operators"}, 
        {"include": "#keywords_control"}
      ]
    },
    "statements":{
      "patterns":[
        {"include": "#statements_strings"}, 
        {"include": "#statements_single_strings"},
        {"include": "#statements_comments"}, 
        {"include": "#statements_prompt_variables"},
        {"include": "#statements_system_variables"}
      ]
    }, 
    "statements_system_variables": {
      "patterns": [
        {
          "comment": "Version Number",
          "name": "variable.language.ccl",
          "match": "(?i)\\b(currev|currevminor|currevminor2|currevhnam|curcclrev|curcclver)\\b"
        },
        {
          "comment": "Environment",
          "name": "variable.language.ccl",
          "match": "(?i)\\b(cursys|cursys2|curserver|curlocale|curbedrock|curbedrock|curclientid|curbatch|curenv|curimage|curnetdomain|curnode|curdomain|curuser|curgroup|curprcname|curprog|cursource|curmem|curutc|curutcdiff|curscroll|curecho|curcodecover)\\b"
        },
        {
          "comment": "Relational Database (RDB)",
          "name": "variable.language.ccl",
          "match": "(?i)\\b(currdb|currdbaccess|currdbhandle|currdblink|currdbname|currdbopt|currdbsys|currdbuser)\\b"
        },
        {
          "comment": "Date and Time",
          "name": "variable.language.ccl",
          "match": "(?i)\\b(curclk|curdate|curtime|curtime2|curtime3|curtimezone|curtimezoneapp|curtimezonedef|curtimezonesys|sysdate|systimestamp)\\b"
        },
        {
          "comment": "Runtime",
          "name": "variable.language.ccl",
          "match": "(?i)\\b(curaccept|curhelp|curendreport|curqual|curreturn|curwork)\\b"
        }
      ]
    },
    "keywords_selection": {
      "patterns": [
        {
          "comment": "Select Queries",
          "name": "entity.name.function.ccl",
          "match": "(?i)\\b(SELECT|WITH|ORDER|FROM|JOIN|ORJOIN|PLAN|ON|BY|COMMIT|GROUP|INTO|ROLLBACK|DISTINCT|HAVING)\\b"
        }
      ]
    },
    "keywords_reportwriter": {
      "patterns": [
        {
          "comment": "Report Writer Section",
          "name": "entity.other.attribute-name.ccl",
          "match": "(?i)\\b(DETAIL|REPORT|NULLREPORT)\\b"
        },
        {
          "comment": "Head and Foot sections",
          "match": "(?i)\\b(HEAD|FOOT)\\b\\s[A-Za-z0-9.]*",
          "captures": {
            "1": { "name": "entity.other.attribute-name.ccl" },
            "2": { "name": "variable.language.ccl" }
          }
        },
        {
          "comment": "Report Writer Variables",
          "name": "variable.language.ccl",
          "match": "(?i)\\b(curpage|col|row|maxcol|maxrow|break)\\b"
        }
      ]
    },
    "keywords_system": {
      "patterns": [
        {
          "comment": "System Keywords",
          "name": "support.class.ccl",
          "match": "(?i)\\b(GO|END|PROMPT|DROP|CREATE|PROGRAM|CALL|EXECUTE|SUBROUTINE|FREE|MACRO|ENDMACRO|STAT|COMMIT|ROLLBACK|GRANT|REVOKE)\\b"
        }
      ]
    },
    "keywords_logic": {
      "patterns": [
        {
          "name": "keyword.control.ccl",
          "match": "(?i)\\b(IF|ELSE|ELSEIF|ENDIF|WHILE|ENDWHILE|TRUE|FALSE|LIKE|NOT|NULL|CASE|ENDCASE|FOR|ENDFOR)\\b"
        }
      ]
    },
    "keywords_variable_init": {
      "patterns": [
        {
          "name": "constant.language.ccl",
          "match": "(?i)\\b(record|declare|set|class|constant|noconstant|copy|image|image_aix|image_axp|image_lnx|image_win|map|persist|nopersist|persistscript|private|privateprotect|protect|public|sql|uar|uar_aix|uar_axp|uar_lnx|uar_win|initarray|initrec)\\b"
        }
      ]
    },
    "keywords_specifier": {
      "patterns": [
        {
          "name": "support.constant.ccl",
          "match": "(?i)\\b(WHERE|AND|OR|BETWEEN|RANGE|IN|IS|ALL|NONE)\\b"
        }
      ]
    },
    "keywords_control": {
      "patterns": [{
				"name": "support.constant.ccl",
				"match": "(?i)\\b(APPEND|ARCHIVE|ASOFSCN|ASOFSCNVERSION|CHECK|CPC|NOCPC|COMPRESS|CONSTRAINT|CONVERT|COUNTER|NOCOUNTER|CRT|CURDIO|DIO|DIODUPLEX|DIOMARGIN|DONTCARE|DONTEXIST|DUPREPORT|EXPAND|FILESORT|FORMAT|NOFORMAT|FORMFEED|FORMS|NOFORMS|FORUPDATE|FORUPDATESKIP|FORUPDATEWAIT|HEADING|NOHEADING|INDEX|INDEXUNIQUE|LANDSCRAPE|NOLANDSCAPE|MAXCOL|MAXQUAL|MAXREAD|MAXREC|MAXROW|MEMSORT|MINE|NULLREPORT|ORAHINT|ORAHINTCBO|ORGANIZATION|OWNDER|OUTERJOIN|PCRFORMAT|PIVOT|PRESERVE|NOPRESERVE|PRINT|RDBARRAYFETCH|RDBBINDCONS|NORDBBINDCONS|RBDCBOREPARSE|NORDBCBOREPARSE|RDBPLAN|RDBMSMISC|RDBRANGE|RDBUNION|RECSORT|RECURSIVE|ROWLIMIT|SEPARATOR|SIZE|SKIPBEDROCK|SKIPLOGDOMAIN|SKIPNETDOMAIN|SKIPREPORT|SQLTYPE|STATUS|SYNONYM|TABLESPACE|TEST|TIME|UAR_CODE|VERSION|WITH)\\b"
      }]
    },
    "keywords_methods": {
      "patterns": [
        { "include": "#methods_datetime" },
        { "include": "#methods_query" },
        { "include": "#methods_system" },
        { "include": "#methods_math" },
        { "include": "#methods_strings" },
        { "include": "#methods_other" },
        { "include": "#methods_bitwise" },
        { "include": "#methods_encrypt" },
        { "include": "#methods_error" },
        { "include": "#methods_alter" },
        { "include": "#methods_assign" },
        { "include": "#methods_reportwriter" },
        { "include": "#methods_echo" },
        { "include": "#methods_check" },
        { "include": "#methods_misc_cnvt" },
        { "include": "#methods_memory" },
        { "include": "#methods_null" },
        { "include": "#methods_call_function" }
      ]
    },
    "keywords_uar": {
      "patterns": [
        {
          "name": "support.class.ccl",
          "match": "(?i)\\b(UAR_[a-zA-Z_]*)\\b"
        }
      ]
    },
    "keywords_variable_type": {
      "patterns": [
        {
          "name": "variable.parameter.ccl",
          "match": "(?i)\\b(i[1,2,4]|w8|f[4,8]|dq8|vc|q8|dm[12,14]|(c|vc)[0-9]*)\\b"
        }
      ]
    },
    "keywords_operators": {
      "patterns": [
        {
          "name": "keyword.operator.ccl",
          "match": "="
        },
        {
          "name": "keyword.operator.ccl",
          "match": "%"
        },
        {
          "name": "keyword.operator.ccl",
          "match": "\\+"
        },
        {
          "name": "keyword.operator.ccl",
          "match": "<"
        },
        {
          "name": "keyword.operator.ccl",
          "match": ">"
        },
        {
          "name": "keyword.operator.ccl",
          "match": "-"
        }
      ]
    },
    "statements_strings": {
      "name": "string.quoted.double.ccl",
      "begin": "\"",
      "end": "\"",
      "patterns": [
        {
          "name": "constant.character.escape.ccl",
          "match": "\\\\."
        }
      ]
    },
    "statements_single_strings": {
			"name": "string.quoted.single.ccl",
			"begin": "'",
			"end": "'",
			"patterns": [
				{
					"name": "constant.character.escape.ccl",
					"match": "\\\\."
        }
			]
    },
    "statements_comments": {
      "patterns": [
        { "include": "#comment_line" },
        { "include": "#comment_block" }
      ]
    },
    "statements_prompt_variables": {
      "patterns": [
        {
          "name": "variable.parameter.ccl",
          "match": "\\$[a-zA-Z_0-9]*"
        }
      ]
    },
    "comment_line": {
      "patterns": [
        {
          "comment": "Semicolon Comment",
          "match": "(;.*$)",
          "captures": {
            "1": {
              "name": "comment.line.ccl"
            }
          }
        },
        {
          "comment": "Exclamation Comment",
          "match": "(^\\s*!.*$)",
          "captures": {
            "1": {
              "name": "comment.line.ccl"
            }
          }
        }
      ]
    },
    "comment_block": {
      "patterns": [
        {
          "begin": "(/\\*)",
          "beginCaptures": {
            "1": {
              "name": "comment.block.ccl"
            }
          },
          "end": "\\*/",
          "endCaptures": {
            "0": {
              "name": "comment.block.ccl"
            }
          },
          "name": "comment.block.ccl"
        }
      ]
    },
    "methods_datetime": {
      "patterns": [
        {
          "name": "support.function.ccl",
          "match": "(?i)\\b(DATETIMEADD|DATETIMECMP|DATETIMECMPUTC|DATETIMEDIFF|DATETIMEPART|DATETIMERUNC|DATETIMEZONE|DATETIMEZONEBYINDEX|DATETIMEZONEBYNAME|DATETIMEZONEFORMAT|DATETIMEFIND|DATETIMEDIFF)\\b"
        },
        { "include": "#datetime_cnvt" },
        { "include": "#datetime_units" }
      ]
    },
    "datetime_cnvt": {
      "patterns": [
        {
          "name": "support.function.ccl",
          "match": "(?i)\\b(CNVTDATETIME|CNVTDATETIME2|CNVTDATETIMERDB|CNVTDATE|CNVTDATE2|CNVTDATETIMEUTC|CNVTDATETIMEUTC2|CNVTMIN|CNVTMIN2|CNVTTIME|CNVTTIME2|CNVTTIMESTAMP|CNVTLOOKBEHIND|CNVTLOOKAHEAD)\\b"
        }
      ]
    },
    "datetime_units": {
      "patterns": [
        {
          "name": "support.class.ccl",
          "match": "(?i)\\b(HOUR|DAY|YEAR|JULIAN|MINUTE|MONTH|UTC|WEEKDAY)\\b"
        }
      ]
    },

    "methods_query": {
      "patterns": [
        {
          "name": "support.class.ccl",
          "match": "(?i)\\b(CURQUAL|COUNT|EXPAND|FORMAT|MAXROW|MAXCOL|MAXREC)\\b"
        }
      ]
    },
    "methods_system": {
      "patterns": [
        {
          "name": "support.function.ccl",
          "match": "(?i)\\b(FINDFILE|INITREC|LOCATEVAL|LOGICAL|SQLTYPE|DECODE|EVALUATE|EVALUATE2|VALIDATE|RETURN|EXISTS|RDBUNION|UNION|VARIABLE|CURNODE|MINUS|INTERSECT|INSERT|MERGE|DELETE|CALLPRG|CCLIO|CHAR|CCLFMT|ICHAR|LOCATEEVALSORT|MODIFY|NORDBBIND|OUTERJOIN|PROXYUSER|RDBBIND|SQLPASSTHRU|TBDEXECUTE|TRACE|TYPE|VALIDATE)\\b"
        }
      ]
    },
    "methods_memory": {
      "patterns": [
        {
          "name": "support.function.ccl",
          "match": "(?i)\\b(MEMALLOC|MEMFREE|MEMREALLOC|MOVEREC|MOVERECLIST|RENAMEREC)\\b"
        }
      ]
    },
    "methods_null": {
      "patterns": [
        {
          "name": "support.function.ccl",
          "match": "(?i)\\b(NULL|NULLCHECK|NULLIND|NULLTERM|NULLVAL)\\b"
        }
      ]
    },
    "methods_echo": {
      "patterns": [
        {
          "name": "support.function.ccl",
          "match": "(?i)\\b(ECHO|ECHORECORD|ECHOXML|ECHOJSON)\\b"
        }
      ]
    },
    "methods_encrypt": {
      "patterns": [
        {
          "name": "support.function.ccl",
          "match": "(?i)\\b(aesdecryptfile|aesencryptfile)\\b"
        }
      ]
    },
    "methods_error": {
      "patterns": [
        {
          "name": "support.function.ccl",
          "match": "(?i)\\b(ERROR|ESMERROR)\\b"
        }
      ]
    },
    "methods_misc_cnvt": {
      "patterns": [
        {
          "name": "support.function.ccl",
          "match": "(?i)\\b(cnvtacc|cnvtalias|cnvtalphanum|cnvtbool|cnvtb10B16|cnvtb10b36|cnvtb16b10|cnvtb36b10|cnvthexraw|cnvtint|cnvtjsontorec|cnvtphone|cnvtrawhex|cnvtreal|cnvtrectoxml|cnvtrectojson|cnvtxmltorec|cnvtage|cnvtage2|cnvtagedatetime)\\b"
        }
      ]
    },
    "methods_check": {
      "patterns": [
        {
          "name": "support.function.ccl",
          "match": "(?i)\\b(CHECK|CHECKDIC|CHECKFUN|CHECKPRG|CHECKQUEUE)\\b"
        }
      ]
    },
    "methods_call_function": {
      "patterns": [
        {
          "name": "support.function.ccl",
          "match": "(?i)\\b(ACCEPT|BOX|CANCEL|CCLEXCEPTION|CENTER|CLEAR|COMPILE|DCL|DEBUG|EDIT|LINE|PAUSE|PRINT|PRINTIMAGE|SCROLLDOWN|SCROLLUP|SCROLLINIT|SCROLLTEXT|VIDEO)\\b"
        }
      ]
    },
    "methods_alter": {
      "patterns": [
        {
          "name": "support.function.ccl",
          "match": "(?i)\\b(ALTER|ALTER2|ALTERLIST)\\b"
        }
      ]
    },
    "methods_assign": {
      "patterns": [
        {
          "name": "support.function.ccl",
          "match": "(?i)\\b(ASSIGN|ASSIGN2|ASSIGN3)\\b"
        }
      ]
    },
    "methods_math": {
      "patterns": [
        {
          "name": "support.function.ccl",
          "match": "(?i)\\b(MAX|MIN|AVG|SUM|MOD|SIZE|ISNUMERIC|CNVTREAL|ABS|VALUE|CUBE|MEDIAN|PERCENT|ROLLUP|STDDEV|VARIANCE|CEIL|EVEN|EXP|FLOOR|GREATEST|LEAST|LOG|LOG10|MAXVAL|MINVAL|RAND|ISNUMERIC|MODCHECK|NEGATE|OPERATOR|PERCENTILE|REFLECT|ROUND)\\b"
        }
      ]
    },
    "methods_strings": {
      "patterns": [
        {
          "name": "support.function.ccl",
          "match": "(?i)\\b(CONCAT|BUILD|BUILD2|BUILD2CHK|SUBSTRING|TRIM|FILLSTRING|FINDSTRING|CNVTCAP|CNVTNLS|CNVTNLSSORT|CNVTSTRINGCHK|CNVTSTRING|CNVTUPPER|CNVTLOWER|REPLACE|PATSTRING|LIST|TEXT|TEXTLEN|AESDECRYPT|AESENCRYPT|BLOBGET|BLOBGETLEN|CURFILE|CURLOCALE|MOVESTRING|NOTRIM|NOPATSTRING|PIECE|TRIMBIND)\\b"
        }
      ]
    },
    "methods_bitwise": {
      "patterns": [
        {
          "name": "support.function.ccl",
          "match": "(?i)\\b(BAND|BOR|BTEST|BXOR|BNOT)\\b"
        }
      ]
    },
    "methods_reportwriter": {
      "patterns": [
        {
          "name": "support.function.ccl",
          "match": "(?i)\\b(CALCPOS|REPORTINFO|REPORTMOVE|REPORTROW)\\b"
        }
      ]
    },
    "methods_other": {
      "patterns": [
        {
          "name": "support.function.ccl",
          "match": "(?i)\\b(BTEST|FINDSTRING|ASIS|NULLTERM|PARSER|FORMFEED|NOFORMFEED|PARAMETER|PARAMETER2|REMOVE|SELECTIVITY|SEQ|SORT|SORTSEARCH|SOUND|SOUNDEX|WTMODCHECK|VALUE)\\b"
        }
      ]
    }
  },

  "scopeName": "source.ccl"
}
